4,"[[26446664, 26775641, 26581688, 52910197, 52992675, 35837822, 40811152, 22444643, 27643055, 6625683, 6903759, 6683291, 53271009, 53398334, 53509952, 46209186, 46166871, 46269280, 46546886, 41486439, 41381968, 48337811, 48592895, 48627611, 937244, 944225, 12657898, 37728752, 50271799, 59817264, 26515394, 53242950, 53034064, 53172440, 35937307, 35944803, 36022304, 51108712, 51204290, 41142511, 40808590, 53349706, 53284534, 53668098, 46207836, 46426476, 46394584, 46376850, 46188666, 46110347, 46431987, 41258219, 41515328, 41353442, 41599246, 41494284, 39001574, 39194035, 39306505, 48000405, 36711647, 36919697, 36643863, 48547948, 48633853, 48403766, 48365472, 48530141, 48784889, 48492969, 48559795, 16807620, 16964712, 16722309, 651572, 52882208, 35925226, 35823312, 35941457],0,79]"
60,"[[26446664, 52910197, 36068222, 6903759, 53398334, 46195071, 937244, 59817264, 26515394, 53242950, 53172440, 35939555, 35944803, 51204290, 53284534, 41494284, 36711647, 36919697, 48784889, 16807620, 35925226, 35941457],0,22]"
92,"[[26446664, 36068222, 40811152, 27643055, 53398334, 53242950, 35944803, 27608643, 46376850, 41599246, 36711647, 48784889],0,12]"
332,"[[26446664, 46207836, 46394584, 41494284, 16807620],0,5]"
452,"[[26446664, 41494284],0,2]"
732,"[[26446664, 41515328],0,2]"
2132,"[[26446664],0,1]"
28,"[[26775641, 52992675, 40811152, 22444643, 27643055, 6625683, 6683291, 53398334, 47962343, 36839002, 48592895, 48627611, 944225, 37728752, 59817264, 26515394, 35939555, 51108712, 40808590, 53284534, 46207836, 46376850, 46188666, 41258219, 41515328, 41353442, 41494284, 39001574, 39194035, 39306505, 36711647, 36919697, 48633853, 48403766, 48784889, 12726012, 35925226],0,37]"
164,"[[26775641, 52910197, 40811152, 6903759, 53271009, 46269280, 26515394, 53242950, 36022304, 53668098, 46431987, 41494284, 48403766, 1065056, 1309760],0,15]"
300,"[[26775641, 53509952, 35939555, 51204290, 39001574, 36711647, 36643863, 48784889, 48492969, 12830707, 52882208],0,11]"
1244,"[[26775641, 46166871, 53668098],0,3]"
1980,"[[26775641],0,1]"
2444,"[[26775641, 6683291],0,2]"
2756,"[[26775641],0,1]"
36,"[[26581688, 52992675, 51416290, 40811152, 6625683, 6903759, 53398334, 53509952, 46166871, 41486439, 36839002, 48627611, 35939555, 41142511, 27608643, 53284534, 46207836, 46376850, 46110347, 41353442, 39306505, 48633853, 48559795, 12726012, 52882208],0,25]"
44,"[[26581688, 22444643, 48337811, 26515394, 53242950, 53172440, 35937307, 46188666, 36919697, 48403766, 16964712, 1309760, 52882208, 35925226, 35823312],0,15]"
348,"[[26581688, 6625683, 6683291, 53398334, 46166871, 48337811, 944225, 59817264, 46426476, 41515328],0,10]"
668,"[[26581688, 48627611, 35941457],0,3]"
1148,"[[26581688],0,1]"
1268,"[[26581688],0,1]"
1284,"[[26581688],0,1]"
2180,"[[26581688, 35925226],0,2]"
2388,"[[26581688],0,1]"
2460,"[[26581688, 48365472],0,2]"
2708,"[[26581688],0,1]"
2948,"[[26581688],0,1]"
3828,"[[26581688],0,1]"
4012,"[[26581688],0,1]"
20,"[[52910197, 22444643, 6625683, 48337811, 26515394, 53242950, 53172440, 35937307, 36711647, 36919697, 48559795, 651572, 52882208, 35925226, 35823312],0,15]"
2204,"[[52910197],0,1]"
4164,"[[52910197],0,1]"
84,"[[52992675, 53271009, 41486439, 46426476, 41515328, 36711647, 48365472, 48784889],0,8]"
340,"[[52992675, 46195071, 35726542, 36711647],0,4]"
3884,"[[52992675],0,1]"
4260,"[[52992675],0,1]"
52,"[[36068222, 51416290, 22444643, 36839002, 937244, 53242950, 53034064, 35939555, 35726542, 41142511, 27608643, 53284534, 46110347, 36919697, 48784889, 48559795, 35823312],0,17]"
1012,"[[36068222, 46394584],0,2]"
1508,"[[36068222],0,1]"
4084,"[[36068222],0,1]"
324,"[[35837822, 6625683, 472724, 53172440, 39306505, 1065056],0,6]"
244,"[[51416290, 35939555],0,2]"
1052,"[[51416290, 41494284],0,2]"
1708,"[[51416290],0,1]"
1828,"[[51416290],0,1]"
12,"[[40811152, 22444643, 27643055, 53509952, 46166871, 41486439, 53034064, 36022304, 46376850, 46110347, 39306505, 36711647, 48547948, 48784889, 48492969, 16722309, 651572],0,17]"
116,"[[40811152, 53398334, 36839002, 41142511, 53668098, 46207836, 46110347, 41353442, 41494284, 48633853, 48559795],0,11]"
276,"[[40811152, 46166871, 35726542, 41142511, 46207836, 46110347, 48633853, 48559795],0,8]"
988,"[[40811152, 48784889],0,2]"
1236,"[[40811152, 36919697],0,2]"
2284,"[[40811152],0,1]"
2404,"[[40811152],0,1]"
76,"[[22444643, 53271009, 53398334, 937244, 46188666, 46431987, 41515328, 41494284, 39194035, 36711647],0,10]"
180,"[[22444643, 48592895, 53284534, 48784889, 16964712, 35823312],0,6]"
188,"[[22444643, 36839002, 53172440, 40808590, 48784889, 16964712],0,6]"
204,"[[22444643, 40808590, 53668098, 48365472, 48784889, 16807620],0,6]"
308,"[[22444643, 6625683, 41486439, 41515328, 39194035, 39306505],0,6]"
404,"[[22444643, 53172440, 46376850, 46188666, 16964712],0,5]"
980,"[[22444643],0,1]"
1428,"[[22444643],0,1]"
2004,"[[22444643, 41470110],0,2]"
2564,"[[22444643],0,1]"
124,"[[22798384, 46269280, 48592895, 12657898, 46394584, 41353442, 41494284, 36919697, 48784889, 16807620],0,10]"
212,"[[27643055, 6903759, 53509952, 937244, 59817264, 53242950, 41142511, 53668098, 41258219, 41515328, 41470110, 39001574, 48547948, 48784889],0,14]"
316,"[[27643055, 12657898, 53668098, 46207836, 46110347, 41353442],0,6]"
500,"[[27643055, 41353442, 41494284, 36711647, 16964712, 35925226],0,6]"
620,"[[27643055, 35937307, 36726866, 36919697, 16807620],0,5]"
740,"[[27643055, 48530141, 1309760],0,3]"
1348,"[[27643055, 12657898, 41353442],0,3]"
364,"[[6625683, 39306505],0,2]"
2420,"[[6625683],0,1]"
3004,"[[6625683],0,1]"
956,"[[6903759, 41515328, 48784889],0,3]"
1644,"[[6903759],0,1]"
3764,"[[6903759],0,1]"
100,"[[53271009, 46269280, 41515328, 41470110, 36919697, 48365472, 1309760, 12726012],0,8]"
540,"[[53271009, 48592895, 48784889],0,3]"
220,"[[53398334, 35726542, 48530141],0,3]"
1788,"[[53398334],0,1]"
3300,"[[53398334],0,1]"
172,"[[53509952],0,1]"
268,"[[53509952, 35939555, 41515328, 12830707],0,4]"
372,"[[53509952],0,1]"
380,"[[53509952],0,1]"
972,"[[53509952, 46195071, 46269280],0,3]"
1116,"[[53509952],0,1]"
1204,"[[53509952],0,1]"
1572,"[[53509952],0,1]"
1724,"[[53509952, 1065056],0,2]"
1972,"[[53509952],0,1]"
2380,"[[53509952, 46195071],0,2]"
388,"[[46195071, 36022304, 41494284, 39306505, 36919697, 16722309, 1065056, 35941457],0,8]"
436,"[[46209186, 35726542, 41142511, 46394584, 12726012],0,5]"
2020,"[[46209186, 48403766],0,2]"
3068,"[[46209186],0,1]"
3588,"[[46209186],0,1]"
196,"[[46166871, 51204290, 48559795],0,3]"
556,"[[46166871],0,1]"
684,"[[46166871, 46546886, 41515328, 41494284],0,4]"
1852,"[[46166871],0,1]"
3444,"[[46166871],0,1]"
140,"[[46269280, 59817264, 53034064, 41142511, 12726012],0,5]"
284,"[[46269280, 53242950, 46394584, 41353442, 41494284, 39306505, 48633853, 16807620, 35941457],0,9]"
580,"[[46269280, 53668098, 46207836, 39001574],0,4]"
3268,"[[46269280],0,1]"
68,"[[46546886, 53242950, 40808590, 46376850, 41258219, 41353442, 39306505, 36711647, 36919697, 48492969, 16964712, 35823312],0,12]"
356,"[[46546886, 35937307, 46207836, 48784889],0,4]"
884,"[[46546886, 39306505],0,2]"
996,"[[46546886, 46207836],0,2]"
1156,"[[46546886, 39306505],0,2]"
2012,"[[46546886],0,1]"
2428,"[[46546886],0,1]"
2596,"[[46546886],0,1]"
2868,"[[46546886],0,1]"
3860,"[[46546886],0,1]"
156,"[[41486439, 53242950, 35939555],0,3]"
468,"[[41486439, 39306505],0,2]"
1668,"[[41486439],0,1]"
3092,"[[41486439],0,1]"
3244,"[[41486439],0,1]"
4252,"[[41486439],0,1]"
3868,"[[41381968],0,1]"
1756,"[[48337811],0,1]"
2276,"[[48337811],0,1]"
3260,"[[48337811],0,1]"
3404,"[[48337811],0,1]"
3604,"[[48337811],0,1]"
4140,"[[48337811],0,1]"
1036,"[[47962343, 944225, 35823312],0,3]"
780,"[[36839002, 12657898, 41142511, 46376850],0,4]"
3372,"[[36839002],0,1]"
428,"[[48627611, 41470110, 48000405, 48530141],0,4]"
596,"[[48627611],0,1]"
1500,"[[48627611],0,1]"
1556,"[[48627611],0,1]"
1636,"[[48627611],0,1]"
1876,"[[48627611],0,1]"
3476,"[[48627611],0,1]"
132,"[[937244, 37728752, 26515394, 35944803, 40808590, 53284534, 46376850, 41258219, 41515328, 41494284, 39001574, 48403766, 48530141, 48784889, 48492969, 16964712],0,16]"
652,"[[937244, 41470110, 48403766],0,3]"
804,"[[937244, 472724, 46110347, 41353442],0,4]"
1180,"[[937244],0,1]"
1484,"[[937244, 48530141],0,2]"
940,"[[472724, 48492969],0,2]"
3556,"[[472724],0,1]"
3780,"[[472724],0,1]"
1492,"[[944225, 35925226],0,2]"
3388,"[[944225],0,1]"
4212,"[[944225],0,1]"
1140,"[[12657898, 51204290, 46376850, 16964712],0,4]"
724,"[[37728752, 36919697],0,2]"
3212,"[[37728752],0,1]"
148,"[[59817264, 40808590, 39306505, 1065056, 12830707],0,5]"
444,"[[59817264],0,1]"
660,"[[59817264],0,1]"
748,"[[59817264, 51108712, 16964712],0,3]"
964,"[[59817264, 41258219],0,2]"
2588,"[[59817264],0,1]"
3844,"[[59817264],0,1]"
676,"[[26515394],0,1]"
108,"[[53242950, 51108712, 46207836, 46426476, 41599246, 48547948, 48784889, 35823312],0,8]"
1172,"[[53242950],0,1]"
3812,"[[53242950],0,1]"
4036,"[[53242950],0,1]"
3132,"[[53034064],0,1]"
764,"[[53172440, 39306505, 36919697],0,3]"
796,"[[53172440],0,1]"
3396,"[[53172440],0,1]"
4156,"[[53172440],0,1]"
788,"[[35939555],0,1]"
1908,"[[35939555],0,1]"
2700,"[[35939555],0,1]"
2900,"[[35939555],0,1]"
1628,"[[35937307],0,1]"
1716,"[[35937307],0,1]"
3084,"[[35937307],0,1]"
3796,"[[35937307],0,1]"
492,"[[35944803, 36711647, 48784889],0,3]"
2172,"[[35944803],0,1]"
2804,"[[35944803],0,1]"
604,"[[36022304, 41470110, 36919697],0,3]"
1524,"[[36022304],0,1]"
412,"[[35726542, 46426476, 41515328],0,3]"
3252,"[[35726542],0,1]"
1356,"[[51108712, 16807620, 16964712],0,3]"
3916,"[[51204290],0,1]"
588,"[[41142511],0,1]"
916,"[[41142511, 35823312],0,2]"
1068,"[[41142511, 35823312],0,2]"
1916,"[[41142511],0,1]"
2060,"[[41142511, 1065056],0,2]"
3532,"[[41142511],0,1]"
548,"[[40808590, 46376850, 48784889],0,3]"
628,"[[40808590, 35823312],0,2]"
860,"[[40808590],0,1]"
1020,"[[40808590],0,1]"
1612,"[[40808590],0,1]"
3420,"[[40808590],0,1]"
1820,"[[27608643],0,1]"
1100,"[[53349706],0,1]"
1292,"[[53284534, 41494284],0,2]"
2612,"[[53284534],0,1]"
2796,"[[53284534],0,1]"
228,"[[53668098, 36711647, 36643863],0,3]"
1956,"[[53668098, 41353442],0,2]"
2196,"[[53668098, 48784889],0,2]"
3652,"[[53668098],0,1]"
852,"[[46207836, 36711647, 48784889, 48559795],0,4]"
1300,"[[46207836],0,1]"
1684,"[[46207836, 39306505],0,2]"
3316,"[[46207836],0,1]"
3548,"[[46207836],0,1]"
1028,"[[46426476],0,1]"
2348,"[[46426476],0,1]"
2732,"[[46426476],0,1]"
3580,"[[46426476],0,1]"
252,"[[46394584],0,1]"
292,"[[46394584, 41494284, 36919697, 48403766],0,4]"
924,"[[46394584, 35941457],0,2]"
1316,"[[46394584],0,1]"
1564,"[[46394584],0,1]"
2884,"[[46394584],0,1]"
1060,"[[46376850],0,1]"
1124,"[[46376850],0,1]"
1188,"[[46188666, 35823312],0,2]"
1212,"[[46188666],0,1]"
484,"[[41258219, 39306505, 36711647],0,3]"
900,"[[41258219],0,1]"
3236,"[[41258219],0,1]"
1044,"[[41515328],0,1]"
2396,"[[41515328, 48784889],0,2]"
2476,"[[41515328],0,1]"
2636,"[[41353442],0,1]"
2108,"[[41494284],0,1]"
3484,"[[41494284],0,1]"
4004,"[[41494284],0,1]"
4172,"[[41494284],0,1]"
4276,"[[41494284],0,1]"
1764,"[[41470110, 48365472],0,2]"
1700,"[[39194035, 12830707],0,2]"
3572,"[[39194035],0,1]"
260,"[[39306505],0,1]"
508,"[[39306505, 35925226],0,2]"
532,"[[39306505],0,1]"
636,"[[39306505],0,1]"
644,"[[39306505, 36919697],0,2]"
716,"[[39306505],0,1]"
820,"[[39306505],0,1]"
876,"[[39306505],0,1]"
908,"[[39306505],0,1]"
1004,"[[39306505],0,1]"
1076,"[[39306505],0,1]"
1404,"[[39306505],0,1]"
1452,"[[39306505],0,1]"
2052,"[[39306505],0,1]"
2252,"[[39306505],0,1]"
2260,"[[39306505],0,1]"
2332,"[[39306505],0,1]"
2628,"[[39306505],0,1]"
2908,"[[39306505],0,1]"
1436,"[[48000405],0,1]"
1964,"[[48000405],0,1]"
2972,"[[48000405],0,1]"
3228,"[[48000405],0,1]"
3612,"[[48000405],0,1]"
4100,"[[48000405],0,1]"
4300,"[[48000405],0,1]"
708,"[[36711647],0,1]"
1252,"[[36711647],0,1]"
1380,"[[36711647],0,1]"
1772,"[[36711647],0,1]"
4284,"[[36711647],0,1]"
524,"[[36919697],0,1]"
564,"[[36919697],0,1]"
756,"[[36919697],0,1]"
1276,"[[36919697],0,1]"
1388,"[[36919697],0,1]"
1396,"[[36919697, 16807620],0,2]"
1412,"[[36919697],0,1]"
2212,"[[36919697],0,1]"
2412,"[[36919697],0,1]"
2620,"[[36919697],0,1]"
2692,"[[36919697],0,1]"
2916,"[[36919697],0,1]"
2924,"[[36919697],0,1]"
3044,"[[36919697],0,1]"
3308,"[[36919697],0,1]"
3324,"[[36919697],0,1]"
3348,"[[36919697],0,1]"
3516,"[[36919697],0,1]"
3940,"[[36919697],0,1]"
4044,"[[36919697],0,1]"
1604,"[[36643863],0,1]"
1844,"[[36643863],0,1]"
2076,"[[36643863],0,1]"
2860,"[[48547948],0,1]"
1164,"[[48403766],0,1]"
3988,"[[48530141],0,1]"
612,"[[48784889, 35823312],0,2]"
892,"[[48784889, 16807620],0,2]"
1132,"[[48784889],0,1]"
1812,"[[48784889, 16964712],0,2]"
2100,"[[48784889],0,1]"
3460,"[[48784889],0,1]"
3468,"[[48784889],0,1]"
700,"[[48492969],0,1]"
1868,"[[48492969, 16807620],0,2]"
1884,"[[48559795],0,1]"
2084,"[[48559795],0,1]"
476,"[[16807620, 12830707],0,2]"
2028,"[[16807620],0,1]"
3364,"[[16807620],0,1]"
236,"[[16964712, 35925226],0,2]"
1108,"[[16964712],0,1]"
1228,"[[16964712],0,1]"
1740,"[[16964712],0,1]"
2068,"[[16964712],0,1]"
3340,"[[16964712],0,1]"
3412,"[[16964712],0,1]"
3700,"[[16964712],0,1]"
4124,"[[16964712],0,1]"
3972,"[[16722309],0,1]"
2508,"[[651572],0,1]"
3708,"[[651572],0,1]"
932,"[[1065056],0,1]"
2308,"[[52882208],0,1]"
2372,"[[52882208],0,1]"
3052,"[[52882208],0,1]"
836,"[[35925226],0,1]"
2268,"[[35925226],0,1]"
2540,"[[35925226],0,1]"
2780,"[[35925226],0,1]"
2988,"[[35925226],0,1]"
3204,"[[35925226],0,1]"
572,"[[35823312],0,1]"
1084,"[[35823312],0,1]"
1420,"[[35823312],0,1]"
2156,"[[35823312],0,1]"
2556,"[[35823312],0,1]"
2676,"[[35823312],0,1]"
3164,"[[35823312],0,1]"
4060,"[[35823312],0,1]"
