93,"[[26446664, 52992675, 6625683, 472724, 59817264, 46376850, 46188666, 41470110, 39194035, 39306505, 36711647, 36919697, 36643863, 35925226],0,14]"
133,"[[26446664, 46546886, 53668098, 46110347],0,4]"
277,"[[26446664, 48337811, 36839002, 472724, 26515394, 46188666, 36711647, 1065056],0,8]"
341,"[[26446664, 46269280, 41142511, 52882208],0,4]"
389,"[[26446664, 53271009, 48627611, 53242950, 53668098, 46394584, 41494284, 16807620],0,8]"
2045,"[[26446664],0,1]"
3357,"[[26446664],0,1]"
37,"[[26775641, 52992675, 46166871, 36022304, 46426476, 36711647, 36919697, 651572],0,8]"
53,"[[26775641, 51416290, 46166871, 48627611, 12657898, 51204290, 53668098, 46207836, 46426476, 46394584, 41353442, 39306505, 48530141, 48559795, 16807620, 12830707, 35941457],0,17]"
117,"[[26775641, 22444643, 46195071, 47962343, 35944803, 53349706, 53668098, 46376850, 41258219, 41470110, 36711647, 48784889, 12830707],0,13]"
173,"[[26775641, 22444643, 6683291, 37728752, 46207836, 48530141, 48559795, 16722309],0,8]"
629,"[[26775641, 6625683, 53509952, 39001574],0,4]"
1029,"[[26775641, 46426476, 36643863],0,3]"
1637,"[[26775641, 41515328],0,2]"
5,"[[26581688, 51416290, 40811152, 22444643, 27643055, 53398334, 53509952, 46166871, 46546886, 41486439, 48592895, 944225, 26515394, 53242950, 35939555, 35937307, 36022304, 53284534, 46207836, 46394584, 41353442, 41494284, 39001574, 39306505, 36711647, 36919697, 48365472, 48784889, 48492969, 48559795, 16722309, 12830707, 52882208, 35823312],0,34]"
69,"[[26581688, 22444643, 27643055, 46195071, 41486439, 36839002, 59817264, 53034064, 35939555, 41142511, 46376850, 41599246, 41494284, 39306505, 48784889, 16964712, 35925226],0,17]"
157,"[[26581688, 48592895, 472724, 36022304, 46394584, 46188666, 48530141, 48492969],0,8]"
189,"[[26581688, 51204290, 27608643, 36711647, 36643863],0,5]"
517,"[[26581688, 53398334, 48592895],0,3]"
1349,"[[26581688, 27643055, 48530141],0,3]"
1613,"[[26581688],0,1]"
1677,"[[26581688],0,1]"
1917,"[[26581688],0,1]"
2917,"[[26581688],0,1]"
3077,"[[26581688],0,1]"
3333,"[[26581688],0,1]"
3613,"[[26581688],0,1]"
3653,"[[26581688],0,1]"
3885,"[[26581688],0,1]"
3965,"[[26581688],0,1]"
21,"[[52910197, 53271009, 53509952, 46195071, 41486439, 47962343, 48592895, 59817264, 35939555, 41142511, 40808590, 27608643, 46426476, 41258219, 39194035, 39306505, 48784889],0,17]"
109,"[[52992675, 51416290, 40811152, 46166871, 46269280, 41486439, 36839002, 53034064, 35939555, 41142511, 53668098, 46207836, 46110347, 39001574, 48633853, 48492969, 48559795, 12726012, 35941457],0,19]"
3669,"[[52992675],0,1]"
333,"[[36068222, 6903759, 41599246, 48784889, 651572],0,5]"
941,"[[36068222, 53284534, 46207836],0,3]"
29,"[[35837822, 27643055, 46166871, 46269280, 48627611, 937244, 12657898, 35726542, 51204290, 40808590, 53284534, 46207836, 46426476, 41353442, 48000405, 36711647, 36919697, 36643863, 48547948, 48784889, 48492969, 48559795, 1309760],0,23]"
973,"[[35837822, 41142511, 39001574],0,3]"
3509,"[[35837822],0,1]"
125,"[[51416290, 6683291, 48627611, 53668098, 41353442, 39001574, 48365472, 48530141, 48559795, 16807620],0,10]"
205,"[[51416290, 48627611, 944225, 51204290, 53668098, 46426476, 48000405],0,7]"
365,"[[51416290, 46166871, 472724, 35937307, 48403766, 12830707],0,6]"
477,"[[51416290, 53509952, 35726542, 27608643, 36711647],0,5]"
589,"[[51416290, 1309760],0,2]"
101,"[[40811152, 22444643, 53271009, 41486439, 53242950, 35944803, 46431987, 41515328, 41599246, 41494284, 39194035, 35925226, 35941457],0,13]"
149,"[[40811152, 53398334, 46166871, 36839002, 41142511, 46207836, 46110347, 48633853, 48559795],0,9]"
213,"[[40811152, 22444643, 53271009, 46166871, 944225, 36919697, 48530141, 52882208],0,8]"
405,"[[40811152, 47962343, 27608643],0,3]"
437,"[[40811152, 36919697, 651572],0,3]"
765,"[[40811152, 59817264, 51108712, 40808590, 41515328],0,5]"
2157,"[[40811152],0,1]"
61,"[[22444643, 6903759, 53398334, 53509952, 937244, 51204290, 27608643, 41515328, 41470110, 48000405, 48784889, 16722309, 12830707],0,13]"
293,"[[22444643, 53509952],0,2]"
605,"[[22444643, 53242950],0,2]"
893,"[[22444643],0,1]"
949,"[[22444643],0,1]"
957,"[[22444643],0,1]"
1173,"[[22444643],0,1]"
3365,"[[22444643],0,1]"
2725,"[[22798384],0,1]"
13,"[[27643055, 46166871, 46269280, 48627611, 937244, 12657898, 51108712, 46207836, 46426476, 46394584, 41353442, 48633853, 16807620, 35941457],0,14]"
309,"[[27643055, 46269280, 12657898, 46207836, 46394584, 41353442, 39194035, 16807620, 35941457],0,9]"
557,"[[27643055, 6903759, 46195071, 12830707],0,4]"
1573,"[[27643055],0,1]"
2645,"[[27643055],0,1]"
3485,"[[27643055],0,1]"
1285,"[[6625683, 35823312],0,2]"
2373,"[[6625683],0,1]"
2597,"[[6625683],0,1]"
4037,"[[6625683],0,1]"
445,"[[6903759, 41486439, 53242950, 39194035, 48784889],0,5]"
1685,"[[6903759],0,1]"
1989,"[[6903759],0,1]"
2301,"[[6903759],0,1]"
141,"[[6683291, 53509952, 50271799, 35939555, 46188666, 41494284, 39306505, 48403766, 48530141, 16722309, 651572, 35925226],0,12]"
349,"[[53271009, 53398334, 46195071, 53172440, 46188666, 48784889, 16807620],0,7]"
4213,"[[53271009],0,1]"
357,"[[53398334, 16807620],0,2]"
2765,"[[53398334],0,1]"
3381,"[[53398334],0,1]"
269,"[[53509952, 48337811, 36711647],0,3]"
381,"[[53509952],0,1]"
429,"[[53509952, 46110347, 39306505, 12830707],0,4]"
501,"[[53509952, 937244],0,2]"
525,"[[53509952],0,1]"
541,"[[53509952],0,1]"
2885,"[[53509952],0,1]"
2965,"[[53509952],0,1]"
197,"[[46195071, 59817264, 35939555, 53284534],0,4]"
677,"[[46195071, 53034064, 46207836, 41599246],0,4]"
757,"[[46195071],0,1]"
1869,"[[46195071],0,1]"
77,"[[46166871, 46546886, 41486439, 48627611, 51204290, 46207836, 46110347, 41258219, 41515328, 39194035, 39306505, 16807620],0,12]"
165,"[[46166871, 36839002, 944225, 35939555, 35726542, 27608643, 46376850, 41515328, 39306505, 48784889],0,10]"
181,"[[46166871, 48627611, 944225, 46426476, 41515328, 41353442, 41470110, 48000405],0,8]"
253,"[[46166871, 53242950, 46394584, 41353442, 48633853, 35941457],0,6]"
469,"[[46166871, 46546886, 35939555, 46207836, 48000405, 36643863],0,6]"
981,"[[46166871, 48627611, 48784889],0,3]"
1053,"[[46166871, 50271799],0,2]"
1157,"[[46166871],0,1]"
229,"[[46269280, 41486439, 41381968, 36839002, 35939555, 35726542, 51204290, 46376850, 41599246, 39001574, 39194035, 36711647, 48784889, 1065056, 1309760, 52882208],0,16]"
1605,"[[46269280, 53668098],0,2]"
1709,"[[46269280, 53242950],0,2]"
3085,"[[46269280],0,1]"
3253,"[[46269280],0,1]"
3309,"[[46269280],0,1]"
261,"[[46546886, 51204290, 46110347],0,3]"
685,"[[46546886, 53668098, 41515328, 41470110],0,4]"
1565,"[[46546886, 41486439],0,2]"
2893,"[[46546886],0,1]"
221,"[[41524361, 12657898, 46426476, 46394584, 16807620],0,5]"
1421,"[[41486439],0,1]"
1645,"[[41486439, 35939555],0,2]"
701,"[[41381968, 48530141],0,2]"
1877,"[[41381968],0,1]"
2253,"[[41381968],0,1]"
3605,"[[41381968],0,1]"
4229,"[[41381968],0,1]"
413,"[[48337811, 59817264],0,2]"
533,"[[48337811, 36839002, 35939555, 46110347, 39306505, 16964712],0,6]"
597,"[[48337811, 39306505],0,2]"
709,"[[48337811, 53172440, 35726542, 53668098, 46431987],0,5]"
853,"[[48337811, 48365472],0,2]"
1453,"[[48337811, 36919697],0,2]"
1789,"[[48337811],0,1]"
4045,"[[48337811],0,1]"
4149,"[[48337811],0,1]"
2757,"[[47962343],0,1]"
325,"[[36839002, 46376850, 36919697, 16964712],0,4]"
3205,"[[36839002],0,1]"
2693,"[[48592895],0,1]"
3053,"[[48592895],0,1]"
1045,"[[48627611],0,1]"
1181,"[[48627611],0,1]"
1837,"[[48627611],0,1]"
2005,"[[48627611],0,1]"
861,"[[937244],0,1]"
2773,"[[937244],0,1]"
4069,"[[937244],0,1]"
2061,"[[472724],0,1]"
3989,"[[472724],0,1]"
485,"[[944225, 36919697],0,2]"
1325,"[[944225],0,1]"
1941,"[[944225],0,1]"
493,"[[12657898, 36022304, 46376850, 48784889],0,4]"
717,"[[12657898, 46394584],0,2]"
2237,"[[12657898],0,1]"
2141,"[[37728752],0,1]"
3821,"[[37728752],0,1]"
2021,"[[50271799],0,1]"
2365,"[[50271799],0,1]"
653,"[[59817264, 48784889],0,2]"
749,"[[59817264],0,1]"
1021,"[[59817264, 36711647],0,2]"
1501,"[[59817264],0,1]"
2085,"[[59817264],0,1]"
901,"[[26515394],0,1]"
1101,"[[26515394],0,1]"
1317,"[[26515394, 35823312],0,2]"
1357,"[[26515394],0,1]"
2421,"[[26515394],0,1]"
461,"[[53242950, 36711647],0,2]"
509,"[[53242950, 46376850, 48784889, 1309760],0,4]"
925,"[[53242950],0,1]"
1541,"[[53242950],0,1]"
3845,"[[53242950],0,1]"
317,"[[53034064, 35939555],0,2]"
725,"[[53034064],0,1]"
1773,"[[53034064],0,1]"
2533,"[[53034064],0,1]"
1397,"[[53172440, 51204290, 35823312],0,3]"
2165,"[[53172440],0,1]"
2517,"[[53172440],0,1]"
2877,"[[53172440],0,1]"
3973,"[[53172440],0,1]"
805,"[[35939555, 51108712],0,2]"
2181,"[[35939555],0,1]"
3917,"[[35939555],0,1]"
421,"[[35937307, 27608643, 39306505, 36919697, 48547948],0,5]"
933,"[[35937307, 51108712],0,2]"
1221,"[[35937307],0,1]"
1493,"[[35937307],0,1]"
1621,"[[35937307],0,1]"
2565,"[[35937307, 36919697],0,2]"
3197,"[[35937307],0,1]"
4261,"[[35937307],0,1]"
1341,"[[35944803],0,1]"
1901,"[[35944803],0,1]"
2245,"[[35944803],0,1]"
3325,"[[35944803],0,1]"
3389,"[[35944803],0,1]"
4157,"[[35944803],0,1]"
2501,"[[36022304],0,1]"
1013,"[[35726542, 27608643, 53668098],0,3]"
1189,"[[35726542, 48784889],0,2]"
1477,"[[35726542],0,1]"
1525,"[[51108712],0,1]"
3061,"[[51204290],0,1]"
1309,"[[41142511],0,1]"
1533,"[[41142511],0,1]"
1813,"[[41142511],0,1]"
2605,"[[40808590],0,1]"
3813,"[[40808590],0,1]"
4013,"[[40808590],0,1]"
4109,"[[40808590],0,1]"
4133,"[[40808590],0,1]"
2277,"[[27608643],0,1]"
621,"[[53284534],0,1]"
1253,"[[53284534],0,1]"
1509,"[[53284534, 39306505],0,2]"
1597,"[[53284534],0,1]"
1669,"[[53284534],0,1]"
1717,"[[53284534],0,1]"
1725,"[[53284534],0,1]"
245,"[[53668098],0,1]"
1661,"[[53668098],0,1]"
3045,"[[53668098],0,1]"
4245,"[[53668098],0,1]"
3525,"[[46207836],0,1]"
837,"[[46394584],0,1]"
1373,"[[46394584],0,1]"
2997,"[[46394584],0,1]"
3413,"[[46394584],0,1]"
645,"[[46376850],0,1]"
3029,"[[46376850],0,1]"
4197,"[[46376850],0,1]"
1141,"[[46188666],0,1]"
965,"[[46110347, 41258219],0,2]"
2853,"[[46110347],0,1]"
2933,"[[46110347],0,1]"
2981,"[[46110347],0,1]"
3701,"[[46110347],0,1]"
3805,"[[46110347],0,1]"
3957,"[[46110347],0,1]"
573,"[[41515328, 36711647, 16722309],0,3]"
2909,"[[41515328],0,1]"
917,"[[41353442, 48559795],0,2]"
2261,"[[41353442],0,1]"
2957,"[[41353442],0,1]"
1005,"[[41599246],0,1]"
2325,"[[41599246],0,1]"
3005,"[[41599246],0,1]"
3997,"[[41599246],0,1]"
3109,"[[41494284],0,1]"
3173,"[[41494284],0,1]"
3269,"[[41494284],0,1]"
4301,"[[41494284],0,1]"
741,"[[41470110, 39306505, 36711647],0,3]"
797,"[[39001574, 12726012, 35941457],0,3]"
3621,"[[39194035],0,1]"
3837,"[[39194035],0,1]"
45,"[[39306505],0,1]"
773,"[[39306505, 36711647, 35925226],0,3]"
1293,"[[39306505],0,1]"
1381,"[[39306505],0,1]"
2197,"[[39306505],0,1]"
2269,"[[39306505],0,1]"
2621,"[[39306505],0,1]"
3493,"[[39306505],0,1]"
3533,"[[39306505],0,1]"
3597,"[[39306505],0,1]"
2309,"[[48000405],0,1]"
2429,"[[48000405],0,1]"
1133,"[[36726866],0,1]"
1693,"[[36726866],0,1]"
1829,"[[36726866],0,1]"
4141,"[[36726866],0,1]"
285,"[[36711647],0,1]"
301,"[[36711647],0,1]"
549,"[[36711647],0,1]"
613,"[[36711647, 48403766],0,2]"
637,"[[36711647],0,1]"
661,"[[36711647],0,1]"
989,"[[36711647],0,1]"
1117,"[[36711647, 48547948],0,2]"
1237,"[[36711647],0,1]"
1269,"[[36711647],0,1]"
1365,"[[36711647],0,1]"
1485,"[[36711647],0,1]"
1517,"[[36711647],0,1]"
2341,"[[36711647],0,1]"
2525,"[[36711647],0,1]"
4061,"[[36711647],0,1]"
1069,"[[36919697],0,1]"
1077,"[[36919697],0,1]"
1437,"[[36919697],0,1]"
2125,"[[36919697],0,1]"
2357,"[[36919697],0,1]"
2989,"[[36919697],0,1]"
3069,"[[36919697],0,1]"
3141,"[[36919697],0,1]"
3341,"[[36919697],0,1]"
3685,"[[36919697],0,1]"
3853,"[[36919697],0,1]"
3901,"[[36919697],0,1]"
3981,"[[36919697],0,1]"
2653,"[[36643863],0,1]"
885,"[[48547948],0,1]"
3677,"[[48547948],0,1]"
397,"[[48403766],0,1]"
1781,"[[48403766],0,1]"
1933,"[[48403766],0,1]"
4269,"[[48403766],0,1]"
2413,"[[48365472],0,1]"
2613,"[[48530141],0,1]"
821,"[[48784889],0,1]"
869,"[[48784889],0,1]"
1461,"[[48784889],0,1]"
2037,"[[48784889],0,1]"
2333,"[[48784889],0,1]"
2717,"[[48784889],0,1]"
2901,"[[48784889],0,1]"
3557,"[[48784889],0,1]"
1981,"[[48492969],0,1]"
1757,"[[48559795],0,1]"
1957,"[[48559795],0,1]"
2317,"[[48559795],0,1]"
2549,"[[48559795],0,1]"
1429,"[[16964712],0,1]"
1469,"[[16964712],0,1]"
2509,"[[16964712],0,1]"
3749,"[[16964712],0,1]"
4181,"[[16964712],0,1]"
1165,"[[1065056],0,1]"
2829,"[[1065056],0,1]"
3437,"[[1065056],0,1]"
669,"[[1309760],0,1]"
693,"[[1309760],0,1]"
2013,"[[1309760],0,1]"
3397,"[[1309760],0,1]"
3517,"[[1309760],0,1]"
3013,"[[12726012],0,1]"
1741,"[[52882208],0,1]"
373,"[[35925226],0,1]"
909,"[[35925226],0,1]"
2493,"[[35925226],0,1]"
2557,"[[35925226],0,1]"
2669,"[[35925226],0,1]"
1213,"[[35823312],0,1]"
3629,"[[35823312],0,1]"
